%YAML 1.1
%TAG !u! tag:unity3d.com,2011:
--- !u!1 &1022513510542790809
GameObject:
  m_ObjectHideFlags: 0
  m_CorrespondingSourceObject: {fileID: 0}
  m_PrefabInstance: {fileID: 0}
  m_PrefabAsset: {fileID: 0}
  serializedVersion: 6
  m_Component:
  - component: {fileID: 7816315881816482387}
  - component: {fileID: 5243769904405608811}
  m_Layer: 0
  m_Name: OutdoorObjects
  m_TagString: Untagged
  m_Icon: {fileID: 0}
  m_NavMeshLayer: 0
  m_StaticEditorFlags: 0
  m_IsActive: 1
--- !u!4 &7816315881816482387
Transform:
  m_ObjectHideFlags: 0
  m_CorrespondingSourceObject: {fileID: 0}
  m_PrefabInstance: {fileID: 0}
  m_PrefabAsset: {fileID: 0}
  m_GameObject: {fileID: 1022513510542790809}
  m_LocalRotation: {x: 0, y: 0, z: 0, w: 1}
  m_LocalPosition: {x: 0, y: 0, z: 0}
  m_LocalScale: {x: 1, y: 1, z: 1}
  m_ConstrainProportionsScale: 0
  m_Children:
  - {fileID: 5946889534366159388}
  m_Father: {fileID: 0}
  m_RootOrder: 0
  m_LocalEulerAnglesHint: {x: 0, y: 0, z: 0}
--- !u!156049354 &5243769904405608811
Grid:
  m_ObjectHideFlags: 0
  m_CorrespondingSourceObject: {fileID: 0}
  m_PrefabInstance: {fileID: 0}
  m_PrefabAsset: {fileID: 0}
  m_GameObject: {fileID: 1022513510542790809}
  m_Enabled: 1
  m_CellSize: {x: 1, y: 1, z: 0}
  m_CellGap: {x: 0, y: 0, z: 0}
  m_CellLayout: 0
  m_CellSwizzle: 0
--- !u!1 &2785941311394521248
GameObject:
  m_ObjectHideFlags: 0
  m_CorrespondingSourceObject: {fileID: 0}
  m_PrefabInstance: {fileID: 0}
  m_PrefabAsset: {fileID: 0}
  serializedVersion: 6
  m_Component:
  - component: {fileID: 5946889534366159388}
  - component: {fileID: 7896722518934397688}
  - component: {fileID: 4054456872032294125}
  m_Layer: 0
  m_Name: Layer1
  m_TagString: Untagged
  m_Icon: {fileID: 0}
  m_NavMeshLayer: 0
  m_StaticEditorFlags: 0
  m_IsActive: 1
--- !u!4 &5946889534366159388
Transform:
  m_ObjectHideFlags: 0
  m_CorrespondingSourceObject: {fileID: 0}
  m_PrefabInstance: {fileID: 0}
  m_PrefabAsset: {fileID: 0}
  m_GameObject: {fileID: 2785941311394521248}
  m_LocalRotation: {x: -0, y: -0, z: -0, w: 1}
  m_LocalPosition: {x: 0, y: 0, z: 0}
  m_LocalScale: {x: 1, y: 1, z: 1}
  m_ConstrainProportionsScale: 0
  m_Children: []
  m_Father: {fileID: 7816315881816482387}
  m_RootOrder: 0
  m_LocalEulerAnglesHint: {x: 0, y: 0, z: 0}
--- !u!1839735485 &7896722518934397688
Tilemap:
  m_ObjectHideFlags: 0
  m_CorrespondingSourceObject: {fileID: 0}
  m_PrefabInstance: {fileID: 0}
  m_PrefabAsset: {fileID: 0}
  m_GameObject: {fileID: 2785941311394521248}
  m_Enabled: 1
  m_Tiles:
  - first: {x: -3, y: -4, z: 0}
    second:
      serializedVersion: 2
      m_TileIndex: 42
      m_TileSpriteIndex: 42
      m_TileMatrixIndex: 0
      m_TileColorIndex: 0
      m_TileObjectToInstantiateIndex: 65535
      dummyAlignment: 0
      m_AllTileFlags: 1073741825
  - first: {x: -2, y: -4, z: 0}
    second:
      serializedVersion: 2
      m_TileIndex: 43
      m_TileSpriteIndex: 43
      m_TileMatrixIndex: 0
      m_TileColorIndex: 0
      m_TileObjectToInstantiateIndex: 65535
      dummyAlignment: 0
      m_AllTileFlags: 1073741825
  - first: {x: -1, y: -4, z: 0}
    second:
      serializedVersion: 2
      m_TileIndex: 44
      m_TileSpriteIndex: 44
      m_TileMatrixIndex: 0
      m_TileColorIndex: 0
      m_TileObjectToInstantiateIndex: 65535
      dummyAlignment: 0
      m_AllTileFlags: 1073741825
  - first: {x: 0, y: -4, z: 0}
    second:
      serializedVersion: 2
      m_TileIndex: 45
      m_TileSpriteIndex: 45
      m_TileMatrixIndex: 0
      m_TileColorIndex: 0
      m_TileObjectToInstantiateIndex: 65535
      dummyAlignment: 0
      m_AllTileFlags: 1073741825
  - first: {x: 1, y: -4, z: 0}
    second:
      serializedVersion: 2
      m_TileIndex: 46
      m_TileSpriteIndex: 46
      m_TileMatrixIndex: 0
      m_TileColorIndex: 0
      m_TileObjectToInstantiateIndex: 65535
      dummyAlignment: 0
      m_AllTileFlags: 1073741825
  - first: {x: 2, y: -4, z: 0}
    second:
      serializedVersion: 2
      m_TileIndex: 47
      m_TileSpriteIndex: 47
      m_TileMatrixIndex: 0
      m_TileColorIndex: 0
      m_TileObjectToInstantiateIndex: 65535
      dummyAlignment: 0
      m_AllTileFlags: 1073741825
  - first: {x: -3, y: -3, z: 0}
    second:
      serializedVersion: 2
      m_TileIndex: 36
      m_TileSpriteIndex: 36
      m_TileMatrixIndex: 0
      m_TileColorIndex: 0
      m_TileObjectToInstantiateIndex: 65535
      dummyAlignment: 0
      m_AllTileFlags: 1073741825
  - first: {x: -2, y: -3, z: 0}
    second:
      serializedVersion: 2
      m_TileIndex: 37
      m_TileSpriteIndex: 37
      m_TileMatrixIndex: 0
      m_TileColorIndex: 0
      m_TileObjectToInstantiateIndex: 65535
      dummyAlignment: 0
      m_AllTileFlags: 1073741825
  - first: {x: -1, y: -3, z: 0}
    second:
      serializedVersion: 2
      m_TileIndex: 38
      m_TileSpriteIndex: 38
      m_TileMatrixIndex: 0
      m_TileColorIndex: 0
      m_TileObjectToInstantiateIndex: 65535
      dummyAlignment: 0
      m_AllTileFlags: 1073741825
  - first: {x: 0, y: -3, z: 0}
    second:
      serializedVersion: 2
      m_TileIndex: 39
      m_TileSpriteIndex: 39
      m_TileMatrixIndex: 0
      m_TileColorIndex: 0
      m_TileObjectToInstantiateIndex: 65535
      dummyAlignment: 0
      m_AllTileFlags: 1073741825
  - first: {x: 1, y: -3, z: 0}
    second:
      serializedVersion: 2
      m_TileIndex: 40
      m_TileSpriteIndex: 40
      m_TileMatrixIndex: 0
      m_TileColorIndex: 0
      m_TileObjectToInstantiateIndex: 65535
      dummyAlignment: 0
      m_AllTileFlags: 1073741825
  - first: {x: 2, y: -3, z: 0}
    second:
      serializedVersion: 2
      m_TileIndex: 41
      m_TileSpriteIndex: 41
      m_TileMatrixIndex: 0
      m_TileColorIndex: 0
      m_TileObjectToInstantiateIndex: 65535
      dummyAlignment: 0
      m_AllTileFlags: 1073741825
  - first: {x: -3, y: -2, z: 0}
    second:
      serializedVersion: 2
      m_TileIndex: 30
      m_TileSpriteIndex: 30
      m_TileMatrixIndex: 0
      m_TileColorIndex: 0
      m_TileObjectToInstantiateIndex: 65535
      dummyAlignment: 0
      m_AllTileFlags: 1073741825
  - first: {x: -2, y: -2, z: 0}
    second:
      serializedVersion: 2
      m_TileIndex: 31
      m_TileSpriteIndex: 31
      m_TileMatrixIndex: 0
      m_TileColorIndex: 0
      m_TileObjectToInstantiateIndex: 65535
      dummyAlignment: 0
      m_AllTileFlags: 1073741825
  - first: {x: -1, y: -2, z: 0}
    second:
      serializedVersion: 2
      m_TileIndex: 32
      m_TileSpriteIndex: 32
      m_TileMatrixIndex: 0
      m_TileColorIndex: 0
      m_TileObjectToInstantiateIndex: 65535
      dummyAlignment: 0
      m_AllTileFlags: 1073741825
  - first: {x: 0, y: -2, z: 0}
    second:
      serializedVersion: 2
      m_TileIndex: 33
      m_TileSpriteIndex: 33
      m_TileMatrixIndex: 0
      m_TileColorIndex: 0
      m_TileObjectToInstantiateIndex: 65535
      dummyAlignment: 0
      m_AllTileFlags: 1073741825
  - first: {x: 1, y: -2, z: 0}
    second:
      serializedVersion: 2
      m_TileIndex: 34
      m_TileSpriteIndex: 34
      m_TileMatrixIndex: 0
      m_TileColorIndex: 0
      m_TileObjectToInstantiateIndex: 65535
      dummyAlignment: 0
      m_AllTileFlags: 1073741825
  - first: {x: 2, y: -2, z: 0}
    second:
      serializedVersion: 2
      m_TileIndex: 35
      m_TileSpriteIndex: 35
      m_TileMatrixIndex: 0
      m_TileColorIndex: 0
      m_TileObjectToInstantiateIndex: 65535
      dummyAlignment: 0
      m_AllTileFlags: 1073741825
  - first: {x: -3, y: -1, z: 0}
    second:
      serializedVersion: 2
      m_TileIndex: 24
      m_TileSpriteIndex: 24
      m_TileMatrixIndex: 0
      m_TileColorIndex: 0
      m_TileObjectToInstantiateIndex: 65535
      dummyAlignment: 0
      m_AllTileFlags: 1073741825
  - first: {x: -2, y: -1, z: 0}
    second:
      serializedVersion: 2
      m_TileIndex: 25
      m_TileSpriteIndex: 25
      m_TileMatrixIndex: 0
      m_TileColorIndex: 0
      m_TileObjectToInstantiateIndex: 65535
      dummyAlignment: 0
      m_AllTileFlags: 1073741825
  - first: {x: -1, y: -1, z: 0}
    second:
      serializedVersion: 2
      m_TileIndex: 26
      m_TileSpriteIndex: 26
      m_TileMatrixIndex: 0
      m_TileColorIndex: 0
      m_TileObjectToInstantiateIndex: 65535
      dummyAlignment: 0
      m_AllTileFlags: 1073741825
  - first: {x: 0, y: -1, z: 0}
    second:
      serializedVersion: 2
      m_TileIndex: 27
      m_TileSpriteIndex: 27
      m_TileMatrixIndex: 0
      m_TileColorIndex: 0
      m_TileObjectToInstantiateIndex: 65535
      dummyAlignment: 0
      m_AllTileFlags: 1073741825
  - first: {x: 1, y: -1, z: 0}
    second:
      serializedVersion: 2
      m_TileIndex: 28
      m_TileSpriteIndex: 28
      m_TileMatrixIndex: 0
      m_TileColorIndex: 0
      m_TileObjectToInstantiateIndex: 65535
      dummyAlignment: 0
      m_AllTileFlags: 1073741825
  - first: {x: 2, y: -1, z: 0}
    second:
      serializedVersion: 2
      m_TileIndex: 29
      m_TileSpriteIndex: 29
      m_TileMatrixIndex: 0
      m_TileColorIndex: 0
      m_TileObjectToInstantiateIndex: 65535
      dummyAlignment: 0
      m_AllTileFlags: 1073741825
  - first: {x: -3, y: 0, z: 0}
    second:
      serializedVersion: 2
      m_TileIndex: 18
      m_TileSpriteIndex: 18
      m_TileMatrixIndex: 0
      m_TileColorIndex: 0
      m_TileObjectToInstantiateIndex: 65535
      dummyAlignment: 0
      m_AllTileFlags: 1073741825
  - first: {x: -2, y: 0, z: 0}
    second:
      serializedVersion: 2
      m_TileIndex: 19
      m_TileSpriteIndex: 19
      m_TileMatrixIndex: 0
      m_TileColorIndex: 0
      m_TileObjectToInstantiateIndex: 65535
      dummyAlignment: 0
      m_AllTileFlags: 1073741825
  - first: {x: -1, y: 0, z: 0}
    second:
      serializedVersion: 2
      m_TileIndex: 20
      m_TileSpriteIndex: 20
      m_TileMatrixIndex: 0
      m_TileColorIndex: 0
      m_TileObjectToInstantiateIndex: 65535
      dummyAlignment: 0
      m_AllTileFlags: 1073741825
  - first: {x: 0, y: 0, z: 0}
    second:
      serializedVersion: 2
      m_TileIndex: 21
      m_TileSpriteIndex: 21
      m_TileMatrixIndex: 0
      m_TileColorIndex: 0
      m_TileObjectToInstantiateIndex: 65535
      dummyAlignment: 0
      m_AllTileFlags: 1073741825
  - first: {x: 1, y: 0, z: 0}
    second:
      serializedVersion: 2
      m_TileIndex: 22
      m_TileSpriteIndex: 22
      m_TileMatrixIndex: 0
      m_TileColorIndex: 0
      m_TileObjectToInstantiateIndex: 65535
      dummyAlignment: 0
      m_AllTileFlags: 1073741825
  - first: {x: 2, y: 0, z: 0}
    second:
      serializedVersion: 2
      m_TileIndex: 23
      m_TileSpriteIndex: 23
      m_TileMatrixIndex: 0
      m_TileColorIndex: 0
      m_TileObjectToInstantiateIndex: 65535
      dummyAlignment: 0
      m_AllTileFlags: 1073741825
  - first: {x: -3, y: 1, z: 0}
    second:
      serializedVersion: 2
      m_TileIndex: 12
      m_TileSpriteIndex: 12
      m_TileMatrixIndex: 0
      m_TileColorIndex: 0
      m_TileObjectToInstantiateIndex: 65535
      dummyAlignment: 0
      m_AllTileFlags: 1073741825
  - first: {x: -2, y: 1, z: 0}
    second:
      serializedVersion: 2
      m_TileIndex: 13
      m_TileSpriteIndex: 13
      m_TileMatrixIndex: 0
      m_TileColorIndex: 0
      m_TileObjectToInstantiateIndex: 65535
      dummyAlignment: 0
      m_AllTileFlags: 1073741825
  - first: {x: -1, y: 1, z: 0}
    second:
      serializedVersion: 2
      m_TileIndex: 14
      m_TileSpriteIndex: 14
      m_TileMatrixIndex: 0
      m_TileColorIndex: 0
      m_TileObjectToInstantiateIndex: 65535
      dummyAlignment: 0
      m_AllTileFlags: 1073741825
  - first: {x: 0, y: 1, z: 0}
    second:
      serializedVersion: 2
      m_TileIndex: 15
      m_TileSpriteIndex: 15
      m_TileMatrixIndex: 0
      m_TileColorIndex: 0
      m_TileObjectToInstantiateIndex: 65535
      dummyAlignment: 0
      m_AllTileFlags: 1073741825
  - first: {x: 1, y: 1, z: 0}
    second:
      serializedVersion: 2
      m_TileIndex: 16
      m_TileSpriteIndex: 16
      m_TileMatrixIndex: 0
      m_TileColorIndex: 0
      m_TileObjectToInstantiateIndex: 65535
      dummyAlignment: 0
      m_AllTileFlags: 1073741825
  - first: {x: 2, y: 1, z: 0}
    second:
      serializedVersion: 2
      m_TileIndex: 17
      m_TileSpriteIndex: 17
      m_TileMatrixIndex: 0
      m_TileColorIndex: 0
      m_TileObjectToInstantiateIndex: 65535
      dummyAlignment: 0
      m_AllTileFlags: 1073741825
  - first: {x: -3, y: 2, z: 0}
    second:
      serializedVersion: 2
      m_TileIndex: 6
      m_TileSpriteIndex: 6
      m_TileMatrixIndex: 0
      m_TileColorIndex: 0
      m_TileObjectToInstantiateIndex: 65535
      dummyAlignment: 0
      m_AllTileFlags: 1073741825
  - first: {x: -2, y: 2, z: 0}
    second:
      serializedVersion: 2
      m_TileIndex: 7
      m_TileSpriteIndex: 7
      m_TileMatrixIndex: 0
      m_TileColorIndex: 0
      m_TileObjectToInstantiateIndex: 65535
      dummyAlignment: 0
      m_AllTileFlags: 1073741825
  - first: {x: -1, y: 2, z: 0}
    second:
      serializedVersion: 2
      m_TileIndex: 8
      m_TileSpriteIndex: 8
      m_TileMatrixIndex: 0
      m_TileColorIndex: 0
      m_TileObjectToInstantiateIndex: 65535
      dummyAlignment: 0
      m_AllTileFlags: 1073741825
  - first: {x: 0, y: 2, z: 0}
    second:
      serializedVersion: 2
      m_TileIndex: 9
      m_TileSpriteIndex: 9
      m_TileMatrixIndex: 0
      m_TileColorIndex: 0
      m_TileObjectToInstantiateIndex: 65535
      dummyAlignment: 0
      m_AllTileFlags: 1073741825
  - first: {x: 1, y: 2, z: 0}
    second:
      serializedVersion: 2
      m_TileIndex: 10
      m_TileSpriteIndex: 10
      m_TileMatrixIndex: 0
      m_TileColorIndex: 0
      m_TileObjectToInstantiateIndex: 65535
      dummyAlignment: 0
      m_AllTileFlags: 1073741825
  - first: {x: 2, y: 2, z: 0}
    second:
      serializedVersion: 2
      m_TileIndex: 11
      m_TileSpriteIndex: 11
      m_TileMatrixIndex: 0
      m_TileColorIndex: 0
      m_TileObjectToInstantiateIndex: 65535
      dummyAlignment: 0
      m_AllTileFlags: 1073741825
  - first: {x: -3, y: 3, z: 0}
    second:
      serializedVersion: 2
      m_TileIndex: 0
      m_TileSpriteIndex: 0
      m_TileMatrixIndex: 0
      m_TileColorIndex: 0
      m_TileObjectToInstantiateIndex: 65535
      dummyAlignment: 0
      m_AllTileFlags: 1073741825
  - first: {x: -2, y: 3, z: 0}
    second:
      serializedVersion: 2
      m_TileIndex: 1
      m_TileSpriteIndex: 1
      m_TileMatrixIndex: 0
      m_TileColorIndex: 0
      m_TileObjectToInstantiateIndex: 65535
      dummyAlignment: 0
      m_AllTileFlags: 1073741825
  - first: {x: -1, y: 3, z: 0}
    second:
      serializedVersion: 2
      m_TileIndex: 2
      m_TileSpriteIndex: 2
      m_TileMatrixIndex: 0
      m_TileColorIndex: 0
      m_TileObjectToInstantiateIndex: 65535
      dummyAlignment: 0
      m_AllTileFlags: 1073741825
  - first: {x: 0, y: 3, z: 0}
    second:
      serializedVersion: 2
      m_TileIndex: 3
      m_TileSpriteIndex: 3
      m_TileMatrixIndex: 0
      m_TileColorIndex: 0
      m_TileObjectToInstantiateIndex: 65535
      dummyAlignment: 0
      m_AllTileFlags: 1073741825
  - first: {x: 1, y: 3, z: 0}
    second:
      serializedVersion: 2
      m_TileIndex: 4
      m_TileSpriteIndex: 4
      m_TileMatrixIndex: 0
      m_TileColorIndex: 0
      m_TileObjectToInstantiateIndex: 65535
      dummyAlignment: 0
      m_AllTileFlags: 1073741825
  - first: {x: 2, y: 3, z: 0}
    second:
      serializedVersion: 2
      m_TileIndex: 5
      m_TileSpriteIndex: 5
      m_TileMatrixIndex: 0
      m_TileColorIndex: 0
      m_TileObjectToInstantiateIndex: 65535
      dummyAlignment: 0
      m_AllTileFlags: 1073741825
  m_AnimatedTiles: {}
  m_TileAssetArray:
  - m_RefCount: 1
    m_Data: {fileID: 11400000, guid: 8b969adff9b0e7e43bca75f3bfa69cc3, type: 2}
  - m_RefCount: 1
    m_Data: {fileID: 11400000, guid: 9b64415135a7b944cbf35a7fa818de49, type: 2}
  - m_RefCount: 1
    m_Data: {fileID: 11400000, guid: abca6d854dbfcc3429cd6f0883f9e98b, type: 2}
  - m_RefCount: 1
    m_Data: {fileID: 11400000, guid: 60694d9efaefdd44883196204ec963a7, type: 2}
  - m_RefCount: 1
    m_Data: {fileID: 11400000, guid: fe3e6955c3432e346932e9cddd741bf8, type: 2}
  - m_RefCount: 1
    m_Data: {fileID: 11400000, guid: e635e2413b2680b4ca50114d40498867, type: 2}
  - m_RefCount: 1
    m_Data: {fileID: 11400000, guid: 2ae0a3748c364ac45807968873d4a653, type: 2}
  - m_RefCount: 1
    m_Data: {fileID: 11400000, guid: 0153216d0f28cf34ab8e8a3a38b15121, type: 2}
  - m_RefCount: 1
    m_Data: {fileID: 11400000, guid: 6289e3335be2e2d4caa90a200a771314, type: 2}
  - m_RefCount: 1
    m_Data: {fileID: 11400000, guid: 64ebae3b1f52c0b499eb2e48dcd12445, type: 2}
  - m_RefCount: 1
    m_Data: {fileID: 11400000, guid: bfbbc521675c98644939f3baeed0e725, type: 2}
  - m_RefCount: 1
    m_Data: {fileID: 11400000, guid: abcc5b52640f7ac478404c0feb507ead, type: 2}
  - m_RefCount: 1
    m_Data: {fileID: 11400000, guid: 93147b3c5f9c85d4d96967af83cd48ea, type: 2}
  - m_RefCount: 1
    m_Data: {fileID: 11400000, guid: 294ca4700e0f4544da9065fb43120391, type: 2}
  - m_RefCount: 1
    m_Data: {fileID: 11400000, guid: 97897577d843bd448b2b1d53f52e0cec, type: 2}
  - m_RefCount: 1
    m_Data: {fileID: 11400000, guid: 9df9026e495016742b16162a570716fc, type: 2}
  - m_RefCount: 1
    m_Data: {fileID: 11400000, guid: e4717ae7b62072640bdeac06466f71cd, type: 2}
  - m_RefCount: 1
    m_Data: {fileID: 11400000, guid: 43b1a0f75e6c0654d883fb5e3c87b9f2, type: 2}
  - m_RefCount: 1
    m_Data: {fileID: 11400000, guid: 7710840366eaec94e9451f69e3a9d287, type: 2}
  - m_RefCount: 1
    m_Data: {fileID: 11400000, guid: 342f2173d323e4849963418352f295f8, type: 2}
  - m_RefCount: 1
    m_Data: {fileID: 11400000, guid: c26c2cb9a636b4d43904103162da7806, type: 2}
  - m_RefCount: 1
    m_Data: {fileID: 11400000, guid: 7a5e56ff0668138499eef3680efb2cc1, type: 2}
  - m_RefCount: 1
    m_Data: {fileID: 11400000, guid: 3f16366d48747da42a1e4b54ae58983b, type: 2}
  - m_RefCount: 1
    m_Data: {fileID: 11400000, guid: 21fd4d0ac57aeb549ba2993ee6709d64, type: 2}
  - m_RefCount: 1
    m_Data: {fileID: 11400000, guid: c070d4d86a13d9a4c9ca55177c8f0f6e, type: 2}
  - m_RefCount: 1
    m_Data: {fileID: 11400000, guid: 41a3963e8808ae84e913e8af435b7e4d, type: 2}
  - m_RefCount: 1
    m_Data: {fileID: 11400000, guid: 29677f17ba575684d982a76fbb966339, type: 2}
  - m_RefCount: 1
    m_Data: {fileID: 11400000, guid: c016fcaa4c2a3134bb090f01f4d08a65, type: 2}
  - m_RefCount: 1
    m_Data: {fileID: 11400000, guid: 3717e404c6f6bd244b9714d48381b930, type: 2}
  - m_RefCount: 1
    m_Data: {fileID: 11400000, guid: 1810f1659cd860d458bacd710dfc6164, type: 2}
  - m_RefCount: 1
    m_Data: {fileID: 11400000, guid: 135c740ad0e5f7148a8408bc62cf075e, type: 2}
  - m_RefCount: 1
    m_Data: {fileID: 11400000, guid: ed6a7be85cb7f614dab7d889ad45a1e1, type: 2}
  - m_RefCount: 1
    m_Data: {fileID: 11400000, guid: b446cfe2f553cc14c9b8399e294aa450, type: 2}
  - m_RefCount: 1
    m_Data: {fileID: 11400000, guid: db81a97bbddc0d848a54341e361732b1, type: 2}
  - m_RefCount: 1
    m_Data: {fileID: 11400000, guid: 8e17441e03e9f8b4ab21c606bea87e74, type: 2}
  - m_RefCount: 1
    m_Data: {fileID: 11400000, guid: 91b2c2aa4bdcb7d48b18c48c8acc630c, type: 2}
  - m_RefCount: 1
    m_Data: {fileID: 11400000, guid: a70b87ae36de18d4ca11b9a0dfcf06f8, type: 2}
  - m_RefCount: 1
    m_Data: {fileID: 11400000, guid: d582b0a2e3f491c47b0d4d1445c45fc8, type: 2}
  - m_RefCount: 1
    m_Data: {fileID: 11400000, guid: 34da2e9972f08154d8bbef063424ec6f, type: 2}
  - m_RefCount: 1
    m_Data: {fileID: 11400000, guid: 49340eaa86cbd7f4f9cf31a58f961058, type: 2}
  - m_RefCount: 1
    m_Data: {fileID: 11400000, guid: a8a1a140219572147a93b0413c576be2, type: 2}
  - m_RefCount: 1
    m_Data: {fileID: 11400000, guid: 24c4ae880f3c48f4ebe320a509a1f0ff, type: 2}
  - m_RefCount: 1
    m_Data: {fileID: 11400000, guid: 8a445b252d04ffb4fa29634b4c6d7bc2, type: 2}
  - m_RefCount: 1
    m_Data: {fileID: 11400000, guid: e192d973e306a6647b218c4d126fdb69, type: 2}
  - m_RefCount: 1
    m_Data: {fileID: 11400000, guid: a7e982c135c5f0c42b345965d8da8dd0, type: 2}
  - m_RefCount: 1
    m_Data: {fileID: 11400000, guid: 5c5f263819275404e97b6083fbb00ea4, type: 2}
  - m_RefCount: 1
    m_Data: {fileID: 11400000, guid: e1273ffb44280184c989f33d79639330, type: 2}
  - m_RefCount: 1
    m_Data: {fileID: 11400000, guid: 8bdf5cd09ad8a5349a437d53e415cc4e, type: 2}
  m_TileSpriteArray:
  - m_RefCount: 1
    m_Data: {fileID: -9090081258529360533, guid: bdb33f93046e8154c9b241e9efe8ca17, type: 3}
  - m_RefCount: 1
    m_Data: {fileID: -5729313528531328495, guid: bdb33f93046e8154c9b241e9efe8ca17, type: 3}
  - m_RefCount: 1
    m_Data: {fileID: 4671247495648094691, guid: bdb33f93046e8154c9b241e9efe8ca17, type: 3}
  - m_RefCount: 1
    m_Data: {fileID: -5091118189757837924, guid: bdb33f93046e8154c9b241e9efe8ca17, type: 3}
  - m_RefCount: 1
    m_Data: {fileID: -7467178616292317397, guid: bdb33f93046e8154c9b241e9efe8ca17, type: 3}
  - m_RefCount: 1
    m_Data: {fileID: 5997417513935641279, guid: bdb33f93046e8154c9b241e9efe8ca17, type: 3}
  - m_RefCount: 1
    m_Data: {fileID: 8644179540084937373, guid: bdb33f93046e8154c9b241e9efe8ca17, type: 3}
  - m_RefCount: 1
    m_Data: {fileID: -675941384082286392, guid: bdb33f93046e8154c9b241e9efe8ca17, type: 3}
  - m_RefCount: 1
    m_Data: {fileID: -3407006947039713104, guid: bdb33f93046e8154c9b241e9efe8ca17, type: 3}
  - m_RefCount: 1
    m_Data: {fileID: -1591502714870563546, guid: bdb33f93046e8154c9b241e9efe8ca17, type: 3}
  - m_RefCount: 1
    m_Data: {fileID: -1982847558874123786, guid: bdb33f93046e8154c9b241e9efe8ca17, type: 3}
  - m_RefCount: 1
    m_Data: {fileID: -3745631808366029366, guid: bdb33f93046e8154c9b241e9efe8ca17, type: 3}
  - m_RefCount: 1
    m_Data: {fileID: -7568768627165398126, guid: bdb33f93046e8154c9b241e9efe8ca17, type: 3}
  - m_RefCount: 1
    m_Data: {fileID: -2260758576569718118, guid: bdb33f93046e8154c9b241e9efe8ca17, type: 3}
  - m_RefCount: 1
    m_Data: {fileID: -2532509801758162744, guid: bdb33f93046e8154c9b241e9efe8ca17, type: 3}
  - m_RefCount: 1
    m_Data: {fileID: 4722796471631100839, guid: bdb33f93046e8154c9b241e9efe8ca17, type: 3}
  - m_RefCount: 1
    m_Data: {fileID: -653023770065387995, guid: bdb33f93046e8154c9b241e9efe8ca17, type: 3}
  - m_RefCount: 1
    m_Data: {fileID: -3367238899212009060, guid: bdb33f93046e8154c9b241e9efe8ca17, type: 3}
  - m_RefCount: 1
    m_Data: {fileID: -1982722248123138856, guid: bdb33f93046e8154c9b241e9efe8ca17, type: 3}
  - m_RefCount: 1
    m_Data: {fileID: -6303687570523046441, guid: bdb33f93046e8154c9b241e9efe8ca17, type: 3}
  - m_RefCount: 1
    m_Data: {fileID: 6025974560017816823, guid: bdb33f93046e8154c9b241e9efe8ca17, type: 3}
  - m_RefCount: 1
    m_Data: {fileID: -9133457310267236724, guid: bdb33f93046e8154c9b241e9efe8ca17, type: 3}
  - m_RefCount: 1
    m_Data: {fileID: -6828075712084477736, guid: bdb33f93046e8154c9b241e9efe8ca17, type: 3}
  - m_RefCount: 1
    m_Data: {fileID: 5319871028266476386, guid: bdb33f93046e8154c9b241e9efe8ca17, type: 3}
  - m_RefCount: 1
    m_Data: {fileID: -3725104066949894874, guid: bdb33f93046e8154c9b241e9efe8ca17, type: 3}
  - m_RefCount: 1
    m_Data: {fileID: -6621993901886999253, guid: bdb33f93046e8154c9b241e9efe8ca17, type: 3}
  - m_RefCount: 1
    m_Data: {fileID: 5053289872176169434, guid: bdb33f93046e8154c9b241e9efe8ca17, type: 3}
  - m_RefCount: 1
    m_Data: {fileID: 8037934794740208419, guid: bdb33f93046e8154c9b241e9efe8ca17, type: 3}
  - m_RefCount: 1
    m_Data: {fileID: -4828141240371503795, guid: bdb33f93046e8154c9b241e9efe8ca17, type: 3}
  - m_RefCount: 1
    m_Data: {fileID: 6525189100420449480, guid: bdb33f93046e8154c9b241e9efe8ca17, type: 3}
  - m_RefCount: 1
    m_Data: {fileID: 5765708773958057717, guid: bdb33f93046e8154c9b241e9efe8ca17, type: 3}
  - m_RefCount: 1
    m_Data: {fileID: -5094734692785738575, guid: bdb33f93046e8154c9b241e9efe8ca17, type: 3}
  - m_RefCount: 1
    m_Data: {fileID: -3828113515145487058, guid: bdb33f93046e8154c9b241e9efe8ca17, type: 3}
  - m_RefCount: 1
    m_Data: {fileID: -1929328571572859223, guid: bdb33f93046e8154c9b241e9efe8ca17, type: 3}
  - m_RefCount: 1
    m_Data: {fileID: 4440176238190901650, guid: bdb33f93046e8154c9b241e9efe8ca17, type: 3}
  - m_RefCount: 1
    m_Data: {fileID: 1544957349351194514, guid: bdb33f93046e8154c9b241e9efe8ca17, type: 3}
  - m_RefCount: 1
    m_Data: {fileID: -4671965065029097939, guid: bdb33f93046e8154c9b241e9efe8ca17, type: 3}
  - m_RefCount: 1
    m_Data: {fileID: -1161577738954963056, guid: bdb33f93046e8154c9b241e9efe8ca17, type: 3}
  - m_RefCount: 1
    m_Data: {fileID: 4651056878601738799, guid: bdb33f93046e8154c9b241e9efe8ca17, type: 3}
  - m_RefCount: 1
    m_Data: {fileID: 6473274291540238830, guid: bdb33f93046e8154c9b241e9efe8ca17, type: 3}
  - m_RefCount: 1
    m_Data: {fileID: 3627311027896826490, guid: bdb33f93046e8154c9b241e9efe8ca17, type: 3}
  - m_RefCount: 1
    m_Data: {fileID: -4614177587336019761, guid: bdb33f93046e8154c9b241e9efe8ca17, type: 3}
  - m_RefCount: 1
    m_Data: {fileID: 5668490997187514448, guid: bdb33f93046e8154c9b241e9efe8ca17, type: 3}
  - m_RefCount: 1
    m_Data: {fileID: 2569528080791985920, guid: bdb33f93046e8154c9b241e9efe8ca17, type: 3}
  - m_RefCount: 1
    m_Data: {fileID: -5020303508197307433, guid: bdb33f93046e8154c9b241e9efe8ca17, type: 3}
  - m_RefCount: 1
    m_Data: {fileID: 8866142220460914609, guid: bdb33f93046e8154c9b241e9efe8ca17, type: 3}
  - m_RefCount: 1
    m_Data: {fileID: 7277448867188928960, guid: bdb33f93046e8154c9b241e9efe8ca17, type: 3}
  - m_RefCount: 1
    m_Data: {fileID: 7388337797051940704, guid: bdb33f93046e8154c9b241e9efe8ca17, type: 3}
  m_TileMatrixArray:
  - m_RefCount: 48
    m_Data:
      e00: 1
      e01: 0
      e02: 0
      e03: 0
      e10: 0
      e11: 1
      e12: 0
      e13: 0
      e20: 0
      e21: 0
      e22: 1
      e23: 0
      e30: 0
      e31: 0
      e32: 0
      e33: 1
  m_TileColorArray:
  - m_RefCount: 48
    m_Data: {r: 1, g: 1, b: 1, a: 1}
  m_TileObjectToInstantiateArray: []
  m_AnimationFrameRate: 1
  m_Color: {r: 1, g: 1, b: 1, a: 1}
  m_Origin: {x: -3, y: -4, z: 0}
  m_Size: {x: 6, y: 8, z: 1}
  m_TileAnchor: {x: 0.5, y: 0.5, z: 0}
  m_TileOrientation: 0
  m_TileOrientationMatrix:
    e00: 1
    e01: 0
    e02: 0
    e03: 0
    e10: 0
    e11: 1
    e12: 0
    e13: 0
    e20: 0
    e21: 0
    e22: 1
    e23: 0
    e30: 0
    e31: 0
    e32: 0
    e33: 1
--- !u!483693784 &4054456872032294125
TilemapRenderer:
  m_ObjectHideFlags: 0
  m_CorrespondingSourceObject: {fileID: 0}
  m_PrefabInstance: {fileID: 0}
  m_PrefabAsset: {fileID: 0}
  m_GameObject: {fileID: 2785941311394521248}
  m_Enabled: 1
  m_CastShadows: 0
  m_ReceiveShadows: 0
  m_DynamicOccludee: 0
  m_StaticShadowCaster: 0
  m_MotionVectors: 1
  m_LightProbeUsage: 0
  m_ReflectionProbeUsage: 0
  m_RayTracingMode: 0
  m_RayTraceProcedural: 0
  m_RenderingLayerMask: 1
  m_RendererPriority: 0
  m_Materials:
  - {fileID: 10754, guid: 0000000000000000f000000000000000, type: 0}
  m_StaticBatchInfo:
    firstSubMesh: 0
    subMeshCount: 0
  m_StaticBatchRoot: {fileID: 0}
  m_ProbeAnchor: {fileID: 0}
  m_LightProbeVolumeOverride: {fileID: 0}
  m_ScaleInLightmap: 1
  m_ReceiveGI: 1
  m_PreserveUVs: 0
  m_IgnoreNormalsForChartDetection: 0
  m_ImportantGI: 0
  m_StitchLightmapSeams: 1
  m_SelectedEditorRenderState: 0
  m_MinimumChartSize: 4
  m_AutoUVMaxDistance: 0.5
  m_AutoUVMaxAngle: 89
  m_LightmapParameters: {fileID: 0}
  m_SortingLayerID: 0
  m_SortingLayer: 0
  m_SortingOrder: 0
  m_ChunkSize: {x: 32, y: 32, z: 32}
  m_ChunkCullingBounds: {x: 0, y: 0, z: 0}
  m_MaxChunkCount: 16
  m_MaxFrameAge: 16
  m_SortOrder: 0
  m_Mode: 0
  m_DetectChunkCullingBounds: 0
  m_MaskInteraction: 0
--- !u!114 &6675216226650855234
MonoBehaviour:
  m_ObjectHideFlags: 0
  m_CorrespondingSourceObject: {fileID: 0}
  m_PrefabInstance: {fileID: 0}
  m_PrefabAsset: {fileID: 0}
  m_GameObject: {fileID: 0}
  m_Enabled: 1
  m_EditorHideFlags: 0
  m_Script: {fileID: 12395, guid: 0000000000000000e000000000000000, type: 0}
  m_Name: Palette Settings
  m_EditorClassIdentifier: 
  cellSizing: 0
  m_TransparencySortMode: 0
  m_TransparencySortAxis: {x: 0, y: 0, z: 1}
